%YAML 1.1
%TAG !u! tag:unity3d.com,2011:
--- !u!21 &2100000
Material:
  serializedVersion: 8
  m_ObjectHideFlags: 0
  m_CorrespondingSourceObject: {fileID: 0}
  m_PrefabInstance: {fileID: 0}
  m_PrefabAsset: {fileID: 0}
  m_Name: ForceFieldBasicTriplanar07LWRP
  m_Shader: {fileID: 4800000, guid: b71e6c3285f54a545bd1cada84ef4f15, type: 3}
  m_Parent: {fileID: 0}
  m_ModifiedSerializedProperties: 0
  m_ValidKeywords:
  - _LOCALNOISEPOSITION_ON
  - _MASKAPPEARINVERT_ON
  - _MASKDEPTHFADEENABLED_ON
  - _NOISEDISTORTIONENABLED_ON
  m_InvalidKeywords:
  - _RAMPOFPROCEDRUAL_ON
  - _RAMPORPROCEDRUAL_ON
  m_LightmapFlags: 0
  m_EnableInstancingVariants: 0
  m_DoubleSidedGI: 0
  m_CustomRenderQueue: -1
  stringTagMap: {}
  disabledShaderPasses: []
  m_LockedProperties: 
  m_SavedProperties:
    serializedVersion: 3
    m_TexEnvs:
    - _Cubemap:
        m_Texture: {fileID: 8900000, guid: d281eb77a0ac44d48c5b03b7a71a50c7, type: 3}
        m_Scale: {x: 1, y: 1}
        m_Offset: {x: 0, y: 0}
    - _CubemapReflection:
        m_Texture: {fileID: 8900000, guid: d281eb77a0ac44d48c5b03b7a71a50c7, type: 3}
        m_Scale: {x: 1, y: 1}
        m_Offset: {x: 0, y: 0}
    - _HitWaveRampMask:
        m_Texture: {fileID: 2800000, guid: f8540ee1d42f487e987156143a20a4c3, type: 3}
        m_Scale: {x: 1, y: 1}
        m_Offset: {x: 0, y: 0}
    - _MaskAppearNoise:
        m_Texture: {fileID: 2800000, guid: 075bad3c96f446f69a39c7d87cec9c5a, type: 3}
        m_Scale: {x: 4, y: 4}
        m_Offset: {x: 0, y: 0}
    - _MaskAppearRamp:
        m_Texture: {fileID: 2800000, guid: 2128559934d148e5bfac51ec6019d89c, type: 3}
        m_Scale: {x: 1, y: 1}
        m_Offset: {x: 0, y: 0}
    - _Noise01:
        m_Texture: {fileID: 2800000, guid: c9b256f565c646a38aa183bd548de557, type: 3}
        m_Scale: {x: 1, y: 1}
        m_Offset: {x: 0, y: 0}
    - _Noise02:
        m_Texture: {fileID: 2800000, guid: 36fb71d46b354a9aa19192111857ff83, type: 3}
        m_Scale: {x: 1, y: 1}
        m_Offset: {x: 0, y: 0}
    - _NoiseDistortion:
        m_Texture: {fileID: 2800000, guid: 66819fafe6a64db797e1a5f6086c487f, type: 3}
        m_Scale: {x: 1, y: 1}
        m_Offset: {x: 0, y: 0}
    - _Ramp:
        m_Texture: {fileID: 0}
        m_Scale: {x: 1, y: 1}
        m_Offset: {x: 0, y: 0}
    - _ScreenDistortion:
        m_Texture: {fileID: 2800000, guid: 944be4a819c1444a960aa9df0803919d, type: 3}
        m_Scale: {x: 1, y: 1}
        m_Offset: {x: 0, y: 0}
    - _Texture1:
        m_Texture: {fileID: 0}
        m_Scale: {x: 1, y: 1}
        m_Offset: {x: 0, y: 0}
    - _Texture2:
        m_Texture: {fileID: 0}
        m_Scale: {x: 1, y: 1}
        m_Offset: {x: 0, y: 0}
    - _TextureSample6:
        m_Texture: {fileID: 2800000, guid: 3c4ea3a033cf4ed09936c7bd439486a4, type: 3}
        m_Scale: {x: 3, y: 0.01}
        m_Offset: {x: 0, y: 0}
    - _TextureSample7:
        m_Texture: {fileID: 2800000, guid: bfb5d11eb2154099bda5558461f45026, type: 3}
        m_Scale: {x: 1, y: 1}
        m_Offset: {x: 0, y: 0}
    - _TopTexture1:
        m_Texture: {fileID: 2800000, guid: 944be4a819c1444a960aa9df0803919d, type: 3}
        m_Scale: {x: 1, y: 1}
        m_Offset: {x: 0, y: 0}
    - _TopTexture2:
        m_Texture: {fileID: 0}
        m_Scale: {x: 1, y: 1}
        m_Offset: {x: 0, y: 0}
    - _texcoord:
        m_Texture: {fileID: 0}
        m_Scale: {x: 1, y: 1}
        m_Offset: {x: 0, y: 0}
    m_Ints: []
    m_Floats:
    - _AlphaCutoff: 0.5
    - _AppearMaskRemapLocalY: 0.5
    - _CubemapEnabled: 0
    - _CubemapReflectionEnabled: 0
    - _DepthFadeDistance: 2
    - _DepthFadeExp: 4
    - _FinalPower: 4
    - _FinalPowerAdjust: 0
    - _FinalPowerSubtract: -1
    - _Float0: 0.5
    - _Float1: 0
    - _Float13: 2.48
    - _Float17: -0.5
    - _Float21: 0.5
    - _Float5: 0
    - _FresnelExp: 4
    - _HitWaveDistortionPower: 2
    - _HitWaveFadeDistance: 4.5
    - _HitWaveFadeDistancePower: 2
    - _HitWaveLength: 0.125
    - _HitWaveNoiseNegate: 1
    - _LocalNoisePosition: 1
    - _MaskAppearAdd: 1
    - _MaskAppearInvert: 1
    - _MaskAppearLocalYAdd: 0
    - _MaskAppearLocalYRamap: 0.5
    - _MaskAppearMultiply: 6
    - _MaskAppearNoiseNegate: 1
    - _MaskAppearNoiseTriplanar: 0
    - _MaskAppearNoiseTriplanarTiling: 0.1
    - _MaskAppearPower: 0.5
    - _MaskAppearProgress: -1.1101712
    - _MaskAppearRemapLocalY: 0.5
    - _MaskAppearSubtract: 0.25
    - _MaskAppearUseWorldPosition: 0
    - _MaskDepthFadeDistance: 3
    - _MaskDepthFadeEnabled: 1
    - _MaskDepthFadeExp: 4
    - _MaskFresnelExp: 2
    - _Noise01ScrollSpeed: 0.25
    - _Noise01Tiling: 0.125
    - _Noise02Enabled: 0
    - _Noise02ScrollSpeed: 0.1
    - _Noise02Tiling: 0.35
    - _NoiseDistortionEnabled: 1
    - _NoiseDistortionPower: 0.25
    - _NoiseDistortionTiling: 0.1
    - _NoiseMaskAdd: 0.75
    - _NoiseMaskPower: 6
    - _NoisePower: 1
    - _NormalVertexOffset: 0
    - _OpacityPower: 2
    - _OpacityPowerAdd: 0
    - _ProcedrualGradientEnabled: 0
    - _RampFlip: 0
    - _RampMultiplyTiling: 1
    - _RampofProcedrual: 1
    - _RamporProcedrual: 1
    - _ScreenDistortionPower: 1
    - _Til: 0.25
    - __dirty: 0
    m_Colors:
    - _Color0: {r: 1, g: 0, b: 0, a: 1}
    - _Color1: {r: 1, g: 0.72413796, b: 0, a: 1}
    - _EmissionColor: {r: 1, g: 1, b: 1, a: 1}
    - _ProvedrualColor00: {r: 1, g: 0, b: 0, a: 1}
    - _ProvedrualColor100: {r: 1, g: 0.72413796, b: 0, a: 1}
    - _ProvedrualColorEnd: {r: 1, g: 0.7306288, b: 0.3897058, a: 1}
    - _ProvedrualColorStart: {r: 1, g: 0.24604455, b: 0.07352937, a: 1}
    - _RampColorTint: {r: 1, g: 0.4338235, b: 0.4338235, a: 1}
  m_BuildTextureStacks: []
